     1                                 %line 1+1 control.asm
     2                                 
     3                                 [section .data]
     4                                 [extern printMSG]
     5                                 [extern getQuad]
     6                                 [extern printByteArray]
     7                                 [extern printEndl]
     8                                 [extern printRAX]
     9                                 [extern printRBX]
    10                                 [extern exitNormal]
    11                                 
    12 00000000 456E74657220757020-    prompt db "Enter up to a quadword in hex:"
    13 00000000 746F20612071756164-
    14 00000000 776F726420696E2068-
    15 00000000 65783A             
    16 0000001E 2000000000000000       numprompt dq 32
    17                                 
    18                                 
    19                                 [section .text]
    20                                 
    21                                 [global _start]
    22                                 
    23                                 _start:
    24 00000000 48C7C70D000000          mov rdi, 0xd
    25 00000007 E8(F6FFFFFF)            call printMSG
    26                                 
    27 0000000C 48C7C700000000          mov rdi, 0x0
    28 00000013 E8(F6FFFFFF)            call printMSG
    29                                 
    30 00000018 48BB00000000000000-     mov rbx, 0x8000000000000000
    31 00000018 80                 
    32                                 
    33 00000022 48C7C100000000          mov rcx, 0x0
    34                                 
    35 00000029 48C7C6[00000000]        mov rsi, prompt
    36 00000030 488B1425[00000000]      mov rdx, [numprompt]
    37 00000038 E8(F6FFFFFF)            call printByteArray
    38 0000003D E8(F6FFFFFF)            call printEndl
    39                                 
    40 00000042 E8(F6FFFFFF)            call getQuad
    41 00000047 E8(F6FFFFFF)            call printRAX
    42                                 
    43                                 
    44                                  loopstart:
    45                                 
    46                                 
    47 0000004C 48D1EB                  shr rbx, 1
    48                                 
    49 0000004F 4839D8                  cmp rax, rbx
    50 00000052 7F04                    jg reduceguess
    51 00000054 7C07                    jl increaseguess
    52 00000056 740A                    je endloop
    53                                 
    54 00000058 EBF0                    jmp loopstart
    55                                 
    56                                 
    57                                  reduceguess:
    58 0000005A 48FFCB                  dec rbx
    59 0000005D EBEB                    jmp loopstart
    60                                 
    61                                 
    62                                  increaseguess:
    63 0000005F 48FFC3                  inc rbx
    64 00000062 EBE6                    jmp loopstart
    65                                 
    66                                 
    67                                  endloop:
    68 00000064 E8(F6FFFFFF)            call printRBX
    69                                 
    70                                 
    71 00000069 E8(F6FFFFFF)            call exitNormal
