     1                                 %line 1+1 function2.asm
     2                                 
     3                                 [section .data]
     4                                 [extern printMSG]
     5                                 [extern printEndl]
     6                                 [extern printRAX]
     7                                 [extern exitNormal]
     8                                 
     9                                 [extern parameters]
    10                                 [extern getStats]
    11                                 [extern getStatsExtended]
    12                                 
    13 00000000 0A0B0C0D0D0E0F1011-    array1 db 10, 11, 12, 13, 13, 14, 15, 16, 17, 11
    14 00000000 0B                 
    15 0000000A 0A00000000000000       arraySize dq 10
    16 00000012 0300000000000000       max dq 3
    17 0000001A 0300000000000000       min dq 3
    18 00000022 0300000000000000       sum dq 3
    19 0000002A 0300000000000000       ave dq 3
    20 00000032 0300000000000000       minXmax dq 3
    21 0000003A 0300000000000000       maxDmin dq 3
    22                                 
    23                                 
    24                                 
    25                                 [section .text]
    26                                 
    27                                 
    28                                 
    29                                 
    30                                 
    31                                 
    32                                 
    33                                 
    34                                 
    35                                 
    36                                 
    37                                 
    38                                 
    39                                 
    40                                 
    41                                 
    42                                 
    43                                 
    44                                 
    45                                 
    46                                 
    47                                 
    48                                 
    49                                 
    50                                 
    51                                 
    52                                 
    53                                 [global _start]
    54                                 _start:
    55                                 
    56                                 
    57                                 
    58 00000000 48C7C70D000000          mov rdi, 0xd
    59 00000007 E8(F6FFFFFF)            call printMSG
    60                                 
    61 0000000C 48C7C700000000          mov rdi, 0x0
    62 00000013 E8(F6FFFFFF)            call printMSG
    63                                 
    64                                 
    65                                 
    66                                 
    67                                 
    68                                 
    69                                 
    70                                 
    71 00000018 48C7C7[00000000]        mov rdi, array1
    72 0000001F 488B3425[00000000]      mov rsi, [arraySize]
    73 00000027 48C7C2[00000000]        mov rdx, max
    74 0000002E 48C7C1[00000000]        mov rcx, min
    75 00000035 49C7C0[00000000]        mov r8, sum
    76 0000003C 49C7C1[00000000]        mov r9, ave
    77 00000043 68[00000000]            push maxDmin
    78 00000048 68[00000000]            push minXmax
    79                                 
    80 0000004D E8(F6FFFFFF)            call parameters
    81                                 
    82                                 
    83 00000052 4883C410                add rsp, 16
    84                                 
    85                                 
    86                                 
    87 00000056 488B0425[00000000]      mov rax, [max]
    88 0000005E E8(F6FFFFFF)            call printRAX
    89                                 
    90 00000063 488B0425[00000000]      mov rax, [min]
    91 0000006B E8(F6FFFFFF)            call printRAX
    92                                 
    93 00000070 488B0425[00000000]      mov rax, [sum]
    94 00000078 E8(F6FFFFFF)            call printRAX
    95                                 
    96 0000007D 488B0425[00000000]      mov rax, [ave]
    97 00000085 E8(F6FFFFFF)            call printRAX
    98                                 
    99 0000008A 488B0425[00000000]      mov rax, [minXmax]
   100 00000092 E8(F6FFFFFF)            call printRAX
   101                                 
   102 00000097 488B0425[00000000]      mov rax, [maxDmin]
   103 0000009F E8(F6FFFFFF)            call printRAX
   104                                 
   105 000000A4 E8(F6FFFFFF)            call printEndl
   106                                 
   107                                 
   108                                 
   109                                 
   110                                 
   111 000000A9 48C7C7[00000000]        mov rdi, array1
   112 000000B0 488B3425[00000000]      mov rsi, [arraySize]
   113 000000B8 48C7C2[00000000]        mov rdx, max
   114 000000BF 48C7C1[00000000]        mov rcx, min
   115 000000C6 49C7C0[00000000]        mov r8, sum
   116 000000CD 49C7C1[00000000]        mov r9, ave
   117                                 
   118 000000D4 E8(F6FFFFFF)            call getStats
   119                                 
   120                                 
   121 000000D9 488B0425[00000000]      mov rax, [max]
   122 000000E1 E8(F6FFFFFF)            call printRAX
   123                                 
   124 000000E6 488B0425[00000000]      mov rax, [min]
   125 000000EE E8(F6FFFFFF)            call printRAX
   126                                 
   127 000000F3 488B0425[00000000]      mov rax, [sum]
   128 000000FB E8(F6FFFFFF)            call printRAX
   129                                 
   130 00000100 488B0425[00000000]      mov rax, [ave]
   131 00000108 E8(F6FFFFFF)            call printRAX
   132                                 
   133 0000010D E8(F6FFFFFF)            call printEndl
   134                                 
   135                                 
   136                                 
   137                                 
   138                                 
   139 00000112 48C7C7[00000000]        mov rdi, array1
   140 00000119 488B3425[00000000]      mov rsi, [arraySize]
   141 00000121 48C7C2[00000000]        mov rdx, max
   142 00000128 48C7C1[00000000]        mov rcx, min
   143 0000012F 49C7C0[00000000]        mov r8, sum
   144 00000136 49C7C1[00000000]        mov r9, ave
   145 0000013D 68[00000000]            push maxDmin
   146 00000142 68[00000000]            push minXmax
   147                                 
   148 00000147 E8(F6FFFFFF)            call getStatsExtended
   149                                 
   150 0000014C 4883C410                add rsp, 16
   151                                 
   152                                 
   153 00000150 488B0425[00000000]      mov rax, [max]
   154 00000158 E8(F6FFFFFF)            call printRAX
   155                                 
   156 0000015D 488B0425[00000000]      mov rax, [min]
   157 00000165 E8(F6FFFFFF)            call printRAX
   158                                 
   159 0000016A 488B0425[00000000]      mov rax, [sum]
   160 00000172 E8(F6FFFFFF)            call printRAX
   161                                 
   162 00000177 488B0425[00000000]      mov rax, [ave]
   163 0000017F E8(F6FFFFFF)            call printRAX
   164                                 
   165 00000184 488B0425[00000000]      mov rax, [minXmax]
   166 0000018C E8(F6FFFFFF)            call printRAX
   167                                 
   168 00000191 488B0425[00000000]      mov rax, [maxDmin]
   169 00000199 E8(F6FFFFFF)            call printRAX
   170                                 
   171                                 
   172 0000019E E8(F6FFFFFF)            call exitNormal
